-13118922600122121182
-32158274382899619586
60202472858672685920
3781665952112317218500541579980053076372
-14376652216047489687
-138166487956034339462
499579483585449271545819700849362286292
81677749959908809838
4045537662324873923132580898877891718
-4542273330807104325820878439762868590575
6962239388306192737546636144908700631220
44142225041978265384
-46203279456332613799
1654647076803739303225790609665529531523
101639133133690501532
4436837369283227989901837094985755265713
-106497968180450524254
-30521012685918476613
95158446932650608720
163395972840961188916
30992144870057739991
-75010083388243536742
-276842567498110863370826201967918949048
-110115212268523299859
-80883554933385254127
-4548861588790392764690818596421807114992
65650335520485293316
-3022827922156256925093876484620097758900
16552405302669015341
166898594840106146498208602966499228654
-90881024058265260051
6623720239618234406
351904349570688021938343401956289675851
-6521887564753026451449787730473366532407
17372561690273924145
108938585447994100224
-115223130150797705734
-1343619364217312700350790729763006663600
35380975293329807708
8889223347851911341546303543507899011370
11822949360434624034
11464970955424353906213390819768399348905926748678817524623
-207501715411501276154147410615530191469765709985182750476118783400644196313749648025946496359756511105115563596443432404243445480903370619478729763137376004867725431767552
364299033082795236855919744802844324678238216177044022265748236781610201484918859449013084987960229772178821261247476001
97583272252564630624288304862091192471151042397668853579383474166023748964415041
9357123624253160843413239553217914848801
79123464347823383402901553161368429438011463998668554970538510639262099953583376
7791879480735562788704509455815603146761
55388612138832428741581574568250396057041404134386431219433834353425121448612096
239029949183592166923287938609711379067862357316632683477571968819476239700625
-1411815199034278073899553299251140535686116428391699868008116967010894603503968
