1
1
1
--2189
-0
-42564
-20
12655
-2189
-22909
-22
--2189
565
91
-91
1
1
1
-1
0
0
0
1
1
0
-33-2028
12
1
313
435235234827412751981036862
0
91
133
80640
0
-10
696
782043
-237
--237
1246
1243
-42663
-1243
--237
-237
--368830
-276
946
1034
-245
-5
-2285
100000000000
1
1
-288
-4
-18347988927920572092886567162416695526372519913346248989900710715095383008707878464560148424881005492436992
100
1
17324272922341479351919144385642496
3748096
2
3
-44
198
1444687
19998
22
98-21600
-198
-998352648
-19181
98-2126
19324
985347
985347
-9801
-2338955
