2784
1202760
7828884
-43102
228862105
2
10
0
0
323
998001
833204
989
9699
0
1
1
2
0
0
0
1
87491
8533694
421875
346259
384
69831
3497623
272
279936
403437
8864
853292
125
7
23
77
323
604
804
946
1034
95
85
800
0
56
55
185
