59958185
19210944
-12917984989
129800670
1982759667484
375650828
-85140
31834061
17055643832112042222
2848077564192
342987036516
-24779077433080976
-536383214088658823
7544036181476318797
1152903482304
35875966131654996777
-999998000001
12982481840778946440854
1591020427299789913728
355857513442596
897162592328614334830129
503284375
64158439152961731834506988525390625
8178885574471277606968109913151143267168663442134857177734375
2505272742770290651367
152142771701985554763575958564031758336
1091282976
-822115332
-1227627387
-821819565
-463484189589016141
325484606731150083
5918197774497676805026228940496725773621198019744605076700951830792351926936576
281785010142040889086958796134130682836814407080286913311702758206343512212667957294046403006776982284724303180016331287166976
978231401745614252278786008
78518234693345551302923030057478332963413954542414723021004635111533056
1220703125
661744490042422139897126953655970282852649688720703125
1577721810442023610823457130565572459346412870218046009540557861328125
0
0
0
139316612
78608740400
-92716110200
369651629676803542365205095843997460850053479625771265882868250585078520461615165270534174722228224
633825300114114700748351602688
361226366251336609
826521664
513417448042253724
-70156282
6920574478
